{
  "feed": {
    "title": "Top Albums",
    "id": "https://rss.itunes.apple.com/api/v1/us/apple-music/top-albums/all/100/explicit.json",
    "author": {
      "name": "iTunes Store",
      "uri": "http://wwww.apple.com/us/itunes/"
    },
    "links": [
      {
        "self": "https://rss.itunes.apple.com/api/v1/us/apple-music/top-albums/all/100/explicit.json"
      },
      {
        "alternate": "https://itunes.apple.com/WebObjects/MZStore.woa/wa/viewTop?genreId=34&popId=82&app=music"
      }
    ],
    "copyright": "Copyright © 2018 Apple Inc. All rights reserved.",
    "country": "us",
    "icon": "http://itunes.apple.com/favicon.ico",
    "updated": "2020-08-16T02:09:13.000-07:00",
    "results": []
  }
}
